<?xml version="1.0" encoding="utf-8"?>
<!-- Generator: Adobe Illustrator 21.1.0, SVG Export Plug-In . SVG Version: 6.00 Build 0)  -->
<svg version="1.1"
	 id="svg3039" inkscape:version="0.48.3.1 r9886" sodipodi:docname="D20 projfin.svg" xmlns:cc="http://creativecommons.org/ns#" xmlns:dc="http://purl.org/dc/elements/1.1/" xmlns:inkscape="http://www.inkscape.org/namespaces/inkscape" xmlns:rdf="http://www.w3.org/1999/02/22-rdf-syntax-ns#" xmlns:sodipodi="http://sodipodi.sourceforge.net/DTD/sodipodi-0.dtd" xmlns:svg="http://www.w3.org/2000/svg"
	 xmlns="http://www.w3.org/2000/svg" xmlns:xlink="http://www.w3.org/1999/xlink" x="0px" y="0px" viewBox="0 0 1000 1000"
	 style="enable-background:new 0 0 1000 1000;" xml:space="preserve">
<sodipodi:namedview  bordercolor="#666666" borderopacity="1" gridtolerance="10" guidetolerance="10" id="namedview3041" inkscape:current-layer="svg3039" inkscape:cx="223.99143" inkscape:cy="620.07789" inkscape:pageopacity="0" inkscape:pageshadow="2" inkscape:window-height="768" inkscape:window-maximized="1" inkscape:window-width="1366" inkscape:window-x="0" inkscape:window-y="0" inkscape:zoom="0.8" objecttolerance="10" pagecolor="#ffffff" showgrid="false">
	</sodipodi:namedview>
<path id="path3059" inkscape:connector-curvature="0" d="M488.3,942.6c-1.6-1.3-6.4-7-10.8-12.6s-11.5-14.6-15.7-19.9
	c-4.3-5.3-10-12.6-12.8-16.2s-8.3-10.7-12.3-15.7c-4-5.1-10.6-13.6-14.7-18.9s-9.5-12.2-12-15.3c-2.5-3.1-5.2-6.6-6-7.8
	c-0.8-1.2-4.3-5.7-7.7-10s-8.6-10.9-11.5-14.6s-7.6-9.6-10.4-13s-6.4-8.1-8-10.4c-1.6-2.3-5.7-7.7-9.2-12
	c-3.5-4.3-8.6-10.9-11.5-14.6c-2.9-3.7-6.9-8.9-9.1-11.4s-5.7-7.2-8-10.2c-2.3-3.1-6-7.8-8.2-10.6s-4.7-6-5.5-7.2
	c-0.8-1.2-4.1-5.5-7.4-9.6c-3.3-4.1-8.6-10.8-11.7-14.8s-8-10.3-10.8-13.8c-2.8-3.5-5-7.4-5-8.6v-2.3l40.2-0.6
	c62.4-0.9,302-1.5,342.2-0.8l36,0.6l0.3,2.5c0.1,1.4-0.5,3.7-1.5,5.2c-1.7,2.6-32.7,43.4-46.9,61.8c-15.8,20.4-18.1,23.4-20.9,27.4
	c-1.7,2.4-4.8,6.5-7,9.2s-4.3,5.3-4.7,5.9s-3.6,4.7-7,9.2S602,805.1,599,809c-3,4-8.4,11-12,15.6s-9.4,12.2-13,17
	c-3.6,4.7-10.2,13.4-14.8,19.3c-16.5,21.1-23.7,30.5-25.1,32.5c-2.4,3.4-27.9,36.4-34.3,44.4c-3.2,4-6.5,7.2-7.2,7.2
	S489.9,943.9,488.3,942.6L488.3,942.6z M511.4,918.4c9.8-12.6,18.8-24.3,20-26c2.1-3,7.9-10.6,25.8-33.5
	c4.6-5.9,11.3-14.6,14.8-19.3c3.6-4.7,9.4-12.4,13-17s9-11.6,12-15.6c3-4,8.3-10.9,11.8-15.4s6.6-8.6,7-9.2s2.5-3.2,4.7-5.9
	s5.3-6.8,7-9.2c2.8-4,5.1-7.1,20.9-27.4c14.8-19.2,45.2-59.2,46.8-61.8c1.2-1.8,1.4-3,0.7-3.7c-0.7-0.7-55.4-1-168.7-0.8
	c-92.2,0.1-185.1,0.5-206.4,0.9c-35.4,0.6-38.6,0.8-37.7,2.3c0.5,0.9,4.4,5.9,8.5,11.1c4.1,5.2,9.4,12,11.7,15
	c2.3,3,6.4,8.3,9.2,11.7s7.4,9.3,10.3,13s8,10.3,11.5,14.7c3.5,4.3,7,8.9,7.8,10.1c1.5,2.2,5.3,7.1,17.2,21.9
	c3.5,4.3,7.6,9.7,9.2,12c1.6,2.3,5.2,6.9,8,10.4s7.5,9.3,10.4,13s8.1,10.3,11.5,14.6c3.4,4.3,6.9,8.8,7.7,10s3.5,4.7,6,7.8
	c2.5,3.1,7.9,10,12,15.3s10.7,13.8,14.7,18.9c4,5.1,9.5,12.2,12.3,15.7s8.5,10.8,12.8,16.2c4.3,5.3,10.7,13.4,14.2,18
	c9,11.5,13.1,16,14.4,15.5C493,941.5,501.5,931,511.4,918.4L511.4,918.4z M461.3,828.9c-1.8-1.1-4.1-3.5-5.2-5.4
	c-1.8-2.9-2-5-2-16.9c0-12.3,0.2-13.8,2-15.5l2-1.9l-2.1-2.7c-1.1-1.5-1.9-3.7-1.8-4.9l0.3-2.3l24.9-0.3c16.8-0.2,25.4-0.6,26.3-1.4
	c1-0.8,1.3-3,1.1-7.2l-0.3-6.1l-26-0.5l-26-0.5l-0.3-4.3c-0.4-5.2,2.3-10.1,7.2-13.2c3.1-1.9,4.9-2.1,29.1-2.1
	c23.7,0,26,0.2,28.9,1.9c1.7,1.1,4.1,3.3,5.4,5c2.1,2.8,2.2,4.1,2.2,18.1c0,12.3-0.3,15.5-1.6,17.6c-1.5,2.3-1.5,2.6,0,4.3
	c1.3,1.5,1.6,4.3,1.6,16.2c0,13.2-0.2,14.6-2.2,17.7c-1.2,1.8-2.8,3.3-3.4,3.3c-0.6,0-1.7,0.7-2.4,1.5c-1.1,1.3-5.4,1.5-27.9,1.5
	C466,831,464.3,830.9,461.3,828.9L461.3,828.9z M517,827.5c0.7-0.8,1.8-1.5,2.4-1.5c0.6,0,2.1-1.5,3.4-3.3c2-3,2.2-4.5,2.2-15.8
	c0-11.3-0.2-12.7-2-14.3c-1.1-1-2-2.5-2-3.4s0.9-2.7,2-4.1c1.7-2.2,2-4.1,2-15.8c0-12.2-0.2-13.5-2.2-16.3c-1.2-1.7-3.6-3.9-5.4-5
	c-2.9-1.8-5.1-1.9-26.9-1.9c-22.2,0-24,0.1-27.1,2.1c-4,2.5-7.7,8.1-7.2,11.2l0.3,2.3l26,0.5l26,0.5l0.3,7.8
	c0.2,4.9-0.1,8.4-0.9,9.2c-0.9,1.1-5.9,1.4-25.9,1.4c-13.6,0-25,0.3-25.3,0.6c-0.3,0.3,0.3,1.8,1.3,3.1c2.5,3.2,2.5,6.3,0,8.5
	c-1.8,1.5-2,2.9-2,13.4c0,10,0.3,12.1,2,14.9c1.1,1.8,3.5,4.2,5.2,5.4c3,1.9,4.7,2.1,27.8,2.1C511.8,829,516,828.8,517,827.5z
	 M473.2,811.8c-0.7-0.7-1.2-3.8-1.2-7c0-4.7,0.4-6,1.9-6.8c2.3-1.2,32-1.4,33.9-0.2c0.9,0.6,1.2,2.9,1,7.7l-0.3,6.9l-17,0.3
	C479.1,813,474.1,812.7,473.2,811.8z M506.8,805.6c0.2-3.2-0.1-5.2-1-5.7c-1.9-1.2-27.6-1.1-29.9,0.2c-1.4,0.7-1.9,2.1-1.9,4.8
	c0,2.1,0.6,4.3,1.2,5c0.9,0.9,5.4,1.1,16.2,1l15-0.3L506.8,805.6z M427,913.1c-4.7-2.4-17.7-9.9-22-12.6c-1.9-1.2-6.4-3.9-10-5.9
	s-8.5-4.8-11-6.3s-5.9-3.4-7.5-4.3c-4.4-2.5-13.8-8-15.5-9c-0.8-0.5-14.5-8.4-30.5-17.6S299,839.3,296,837.5s-8.6-5-12.5-7
	s-9.2-5.2-12-7c-2.8-1.8-8.8-5.4-13.5-8c-4.7-2.6-11.8-6.7-15.7-9.1c-4-2.4-7.4-4.4-7.7-4.4s-4-2.1-8.3-4.6
	c-4.3-2.6-9.2-5.4-10.8-6.3c-4.1-2.3-13.7-7.9-15.5-9c-0.8-0.5-6-3.5-11.5-6.6s-15.9-9.1-23-13.2s-19-10.9-26.4-15.2
	s-13.9-8.4-14.5-9.3c-0.7-1.2-0.7-2.2,0-3.3c0.6-0.9,7.3-4.5,15-8.1s16.7-7.7,20-9.2c3.3-1.5,14.1-6.5,24-11.1s22.1-10.2,27-12.5
	c28.7-13.6,40.1-18.5,43.1-18.5c1.6,0,10.7,11.3,39.4,49c6.9,9.1,16.1,21.2,20.5,27c4.4,5.8,8.7,11.5,9.5,12.7
	c0.8,1.2,5.8,7.7,11,14.5s10.2,13.3,11,14.5s4.2,5.7,7.5,10c12.1,15.8,26,33.9,27.4,36c0.8,1.2,5.8,7.7,11,14.5s10.3,13.5,11.2,14.8
	s4.7,6.3,8.4,11c15.4,19.6,24.4,32.2,24.4,34.1C435,915.5,431.8,915.6,427,913.1z M429.1,907.8c-1.7-2.3-6.9-9.2-11.6-15.2
	s-10.6-13.7-13.1-17s-9.1-12-14.8-19.4c-5.6-7.3-10.9-14.3-11.7-15.5c-1.5-2.1-15.5-20.5-27.4-36c-3.3-4.3-6.7-8.8-7.5-10
	c-0.8-1.2-5.8-7.7-11-14.5s-10.2-13.3-11-14.5c-0.8-1.2-5.1-6.9-9.5-12.7c-4.4-5.8-13.6-17.9-20.5-27
	c-13.9-18.3-20.1-26.3-30.4-39.3c-6.3-8-7.2-8.8-9.7-8.3c-2.5,0.5-18.7,7.7-39.5,17.6c-4.4,2.1-16.1,7.5-26,12.1
	c-9.9,4.5-20.7,9.5-24,11.1s-12.3,5.7-20,9.2c-7.7,3.5-14,7-14,7.7s6.1,4.7,13.5,9c7.4,4.2,19.4,11.1,26.5,15.2s17.5,10.1,23,13.2
	c5.5,3.1,10.7,6.1,11.5,6.6c1.8,1.1,11.4,6.7,15.5,9c1.6,0.9,6.5,3.8,10.8,6.3c4.3,2.6,8,4.6,8.3,4.6c0.2,0,3.7,2,7.7,4.4
	c4,2.4,11.1,6.5,15.7,9.1s10.8,6.2,13.5,8s8.1,4.9,12,7s9.5,5.3,12.5,7s18.5,10.8,34.5,19.9s29.7,17,30.5,17.6
	c1.7,1.1,11.1,6.5,15.5,9c1.6,0.9,5,2.9,7.5,4.3s7.4,4.3,11,6.3s8.1,4.6,10,5.9c3.4,2.1,15.8,9.3,21,12.1c1.4,0.7,2.9,1.4,3.3,1.4
	C431.8,912,430.8,910.1,429.1,907.8L429.1,907.8z M263.3,807.5c-1.8-0.8-4.1-2.9-5.2-4.7c-2.4-3.9-2.7-10-0.5-11.8
	c1.1-1,9.7-1.4,33.6-1.8l32.1-0.5l6.4,6.9c4.9,5.2,6.4,7.5,6.1,9.4c-0.3,2.5-0.4,2.5-10.3,2.5c-5.5,0-18.6-0.4-29.1-0.9
	c-17-0.8-19.4-0.7-21.5,0.8C272.1,809.3,267.6,809.4,263.3,807.5L263.3,807.5z M272.6,805.5c2.5-1.9,14.1-2,40.2-0.4
	c12.3,0.8,19.6,0.8,20.2,0.2s-1.3-3.4-5.3-7.7l-6.3-6.7l-22.5,0.1c-12.4,0.1-26.3,0.4-30.9,0.8c-6.5,0.5-8.7,1.1-9.5,2.4
	c-1.6,2.6,2,8.8,6.4,11c1.9,1,4,1.7,4.6,1.8S271.5,806.3,272.6,805.5L272.6,805.5z M245.5,777.6c-3.6-1.6-8.9-7.4-13-14.2
	c-1.6-2.7-4.4-7.3-6.2-10.2c-2-3.3-3.3-6.6-3.3-8.7c0-2.8,0.4-3.5,2.5-4.1c5.4-1.3,6.8,0,18.1,16.8c6.4,9.6,10.9,17.3,10.9,18.8
	c0,2.1-0.5,2.5-3,2.7C249.9,778.9,247.1,778.4,245.5,777.6z M252,776c0-1.7-21.1-32.8-22.6-33.4c-1.9-0.7-4.4,0.3-4.4,2
	c0,0.7,1.5,3.7,3.3,6.6c1.8,2.9,4.6,7.5,6.2,10.2c4.1,6.8,9.4,12.6,13,14.2C251.2,777.2,252,777.3,252,776z M266.3,777
	c-3.1-1.3-6.4-6.9-6-10.5c0.3-3,0.3-3,9.8-4.5c9.3-1.5,12-2.4,12-3.8c0-0.4-4.5-6.3-10-13.1c-5.6-7-10-13.3-10-14.5
	c0-3.1,1.9-4.5,6.1-4.5c3,0,4.2,0.6,6.2,3.2c1.4,1.8,9.1,10.9,17.1,20.2c14,16.3,17.2,21.4,14.8,23.7
	C303.7,775.7,270.6,778.8,266.3,777L266.3,777z M292.5,773.9c10.6-1.5,11.5-1.8,11.5-3.7c0-1-6.6-9.4-14.6-18.7
	c-8-9.3-15.7-18.5-17.1-20.2c-2.6-3.4-5.3-4.1-7.1-1.9c-0.9,1,1.1,4.1,8.9,13.7c7.2,8.9,10,13.2,10,15.1c0,1.6-0.7,3.1-1.8,3.7
	c-1,0.5-5.7,1.5-10.5,2.1s-9,1.6-9.3,2.1c-0.9,1.4,2.9,7.2,5.6,8.6C270.6,776.1,279.3,775.8,292.5,773.9L292.5,773.9z M545.5,912.3
	c0.4-1.5,2.4-4.7,4.4-7.2c2.1-2.5,8-10.2,13.1-17.1c10.3-13.8,36.7-48.7,55.5-73.4c6.6-8.7,13.6-18,15.6-20.7
	c1.9-2.7,6.9-9.2,11-14.5s9.1-11.8,11-14.5c4.1-5.7,20.5-27.5,27-35.9c2.5-3.2,6.6-8.7,9.3-12.2c26.1-34.7,30.9-40.6,34.2-41.4
	c1.4-0.4,5.3,0.9,10.9,3.5c4.8,2.2,8.9,4.1,9.2,4.1s7.3,3.2,15.7,7.1s18.1,8.4,21.5,10c3.4,1.6,10.2,4.7,15,6.8
	c4.8,2.1,13.2,6,18.7,8.6c11.1,5.2,13.9,6.5,20.5,9.3c13.2,5.7,18,8.4,18,10.2c0,3.6-1.3,5.1-8.4,9.3c-3.9,2.3-7.9,4.7-8.8,5.2
	c-2,1.2-18.7,11-31.3,18.5c-14,8.3-32.5,19-37.5,21.8c-4.2,2.4-14.7,8.3-18,10.3c-3.9,2.3-12.8,7.5-15.6,9c-1.7,1-4.2,2.4-5.5,3.1
	s-3.1,1.9-3.9,2.6c-0.9,0.7-4.7,2.9-8.5,4.9s-11.2,6.2-16.5,9.2s-19.2,11-31,17.7c-11.8,6.7-24.7,14-28.5,16.2s-9,5.1-11.5,6.5
	c-10.2,5.7-50.1,28.4-58.5,33.3c-17.1,9.9-22.2,12.5-25,12.5C545,915,544.8,914.7,545.5,912.3L545.5,912.3z M570.5,900.5
	c8.4-4.9,48.3-27.6,58.5-33.3c2.5-1.4,7.7-4.3,11.5-6.5s16.7-9.5,28.5-16.2c11.8-6.7,25.8-14.7,31-17.7s12.6-7.2,16.5-9.2
	s7.6-4.2,8.5-4.9s2.6-1.8,3.9-2.6c1.3-0.7,3.8-2.1,5.5-3.1c2.8-1.6,11.7-6.7,15.6-9c3.3-1.9,13.8-7.9,18-10.3
	c5-2.8,23.5-13.5,37.5-21.8c12.7-7.5,29.3-17.3,31.3-18.5c0.9-0.6,4.9-2.9,8.8-5.2c3.9-2.3,7.4-4.9,7.7-5.7
	c0.6-1.4-4.1-4.1-17.3-9.8c-6.6-2.8-9.4-4.1-20.5-9.3c-5.5-2.6-13.9-6.4-18.7-8.6c-4.8-2.1-11.6-5.2-15-6.8
	c-3.4-1.6-13.1-6.1-21.5-10c-8.4-3.9-15.5-7.1-15.7-7.1s-3.8-1.6-8-3.5s-8.1-3.5-8.9-3.5c-2.2,0-8,7-33.4,40.8
	c-2.6,3.5-6.8,9-9.3,12.2c-6.5,8.4-22.9,30.3-27,35.9c-1.9,2.7-6.9,9.2-11,14.5s-9.1,11.8-11,14.5c-1.9,2.7-8.9,12-15.6,20.7
	c-14.2,18.6-41,54.2-58.4,77.1c-6.7,8.9-12.7,16.5-13.2,16.8s-0.9,1-0.9,1.6C548,913.2,554.3,910,570.5,900.5L570.5,900.5z
	 M662.2,798.4c-0.7-0.3-1.2-1.2-1.2-2c0-1.6,7.4-10,10.2-11.5c1-0.5,5.3-1.2,9.6-1.4s8.9-0.7,10.4-1c1.7-0.3,4.7-3,8.2-7.2
	c3.1-3.6,5.3-7,5-7.4s-1.7-0.8-3.2-0.8c-5.1,0-7.2-1.1-7.2-3.6c0-1.3,0.9-3.3,2-4.4c1.8-1.8,3.3-2,18.1-2c9.2,0,16.9,0.4,18,1
	c1.1,0.6,1.9,1.9,1.9,3c0,2.6-8.9,19.1-13.9,25.8c-2.9,3.9-10.7,7.7-20.1,9.8C693.4,798.1,664.5,799.5,662.2,798.4z M698,794.6
	c9.4-2.1,17.2-5.8,20.1-9.7c2.6-3.5,5.6-8.5,10.8-18.1c3-5.5,3-5.8,1.2-6.8c-1.1-0.6-8.2-1-16-1c-12.9,0-14.2,0.2-16.1,2.1
	c-1.1,1.1-1.9,2.3-1.6,2.6c0.3,0.3,2.7,0.8,5.3,1.2c4.2,0.6,4.9,1,5.1,3.2c0.2,1.8-1.2,4.3-5.2,8.9c-3,3.5-6.4,6.8-7.5,7.2
	c-1.1,0.4-6.2,1.1-11.3,1.5c-9.2,0.7-9.2,0.7-14,5.2c-2.6,2.5-4.5,4.9-4.1,5.5C665.5,797.7,689.5,796.5,698,794.6L698,794.6z
	 M740.5,787.7c-1.8-1.3-1.9-1.9-0.8-5.3c0.6-2.1,2.8-8.2,4.9-13.5c4.4-11.5,5.6-12.4,14.9-10.8c7.8,1.3,9.9,3.6,9.2,10
	c-1.4,11.4-2.7,17.5-4.2,18.9c-1.2,1.2-4.1,1.7-11.8,1.9C744.9,789.1,742,788.8,740.5,787.7L740.5,787.7z M762.5,784.9
	c0.9-0.9,2-4.2,2.5-7.5s1.2-7.3,1.5-8.9c0.9-4.3-1.9-7.4-7.2-8.1c-7.1-1-8.9,0-10.9,5.9c-1,2.9-3,8.2-4.5,11.8
	c-2.6,6-2.7,6.6-1.1,7.8C745.3,787.7,760.4,787,762.5,784.9L762.5,784.9z M708.2,752.3c-2-0.8-1.4-4.2,1.1-5.8
	c1.9-1.2,6.3-1.6,23.2-1.7c11.5-0.1,24.5-0.2,28.9-0.2c7.9-0.1,8-0.1,8.3,2.5c0.2,2.1-0.3,2.9-3.2,4.2c-2.9,1.4-7.4,1.6-30.3,1.6
	C721.6,752.9,708.9,752.6,708.2,752.3L708.2,752.3z M764.6,749.4c5.7-2.7,3.1-3.7-7.5-2.8c-5.3,0.4-17.1,0.7-26.3,0.5
	c-10.9-0.2-17.4,0.1-18.8,0.9c-1.2,0.6-1.8,1.6-1.5,2.1c0.3,0.6,10.9,0.9,25.6,0.9C757.1,751,761.8,750.7,764.6,749.4L764.6,749.4z
	 M874,720.7c-1.4-0.6-7-3.1-12.5-5.5s-12.2-5.5-15-6.7s-11.5-5.2-19.5-8.8s-17.4-7.8-21-9.5c-3.6-1.7-10.3-4.7-15-6.8
	c-4.7-2.1-13.2-5.9-18.8-8.6c-5.7-2.7-10.5-4.9-10.8-4.9c-1.3,0-27-12.5-27.6-13.4c-1.4-2.1-0.7-5.5,3.3-15c2.2-5.3,4.5-10.4,5-11.4
	c0.9-1.6,9.9-21.2,24.8-54.2c3.9-8.5,8.6-19,10.6-23.2c2-4.2,5.3-11.6,7.5-16.5s6.7-14.6,10-21.6c3.4-7.1,6.1-13,6.1-13.2
	c0-0.6,11.2-24.8,17.1-37.1c2.7-5.6,4.9-10.4,4.9-10.7c0-0.4,6.8-15.1,20-43.2c1.5-3.3,6.4-13.6,10.8-23
	c4.4-9.4,12.1-25.5,17.2-35.8c8.1-16.5,9.5-18.8,11.4-18.5l2.2,0.3l-0.3,192c-0.1,105.6-0.5,193-0.8,194.2c-0.4,1.8-1.2,2.2-3.7,2.2
	C878,721.9,875.4,721.4,874,720.7z M881.3,718.6c1-2.5,2-382.6,1.1-382.6c-1,0-6.7,11.6-24.7,49.5c-20.8,44-32.7,69.6-32.7,70.2
	c0,0.3-2.2,5.1-4.9,10.7c-5.9,12.3-17.1,36.5-17.1,37.1c0,0.2-2.7,6.2-6.1,13.2c-3.4,7.1-7.9,16.8-10,21.6s-5.5,12.3-7.5,16.5
	s-6.7,14.7-10.6,23.2c-14.9,33-23.9,52.6-24.8,54.2c-2.7,4.7-8.9,21-8.4,22.1c0.3,0.7,2.6,2.2,5.2,3.4c6.6,2.9,27.5,12.4,35.2,16
	c3.6,1.7,10.8,4.9,16,7.2c5.2,2.3,12.4,5.6,16,7.2s13,5.9,21,9.5s16.8,7.5,19.5,8.8c2.8,1.3,9.5,4.3,15,6.7s11.1,4.9,12.5,5.5
	C879.4,720.3,880.7,720.2,881.3,718.6L881.3,718.6z M840.8,606.4c-2.1-2.5-3.8-5.4-3.8-6.4c0-1.6,1.6-6.3,4-11.5
	c0.5-1.1,3.6-8.5,7-16.5c3.3-8,6.7-15.8,7.5-17.5c0.8-1.7,1.6-3.8,1.9-4.8c1-3.1,3.6-3.2,6.5-0.3c2.5,2.5,2.7,3.1,2.7,13
	c0,7.7-0.4,11.2-1.7,13.7c-0.9,1.9-3.5,7.9-5.7,13.4s-5.1,12.6-6.5,15.8c-2.2,5-2.9,5.7-5.3,5.7C845.2,611,843.6,609.8,840.8,606.4z
	 M850.6,603.2c1.4-3.2,4.4-10.2,6.5-15.8s4.7-11.5,5.7-13.4c1.2-2.4,1.7-5.9,1.7-11.7c0-7.2-0.3-8.6-2.2-10.5
	c-2.1-2.1-2.2-2.1-2.8-0.3c-0.3,1.1-1.3,3.3-2,4.9s-4.1,9.5-7.5,17.5s-6.5,15.4-7,16.5c-0.5,1.1-1.6,3.7-2.4,5.7
	c-1.5,3.7-1.4,3.7,2.2,8.2c2,2.5,4,4.5,4.4,4.5C847.7,609,849.2,606.4,850.6,603.2z M788.2,607c-1.5-1.9-2.2-4.2-2.2-7
	c0-4.8,3.7-12,6.2-12c0.9,0,3.1,1.7,4.8,3.7c2.9,3.4,3.1,4.2,2.7,8.9c-0.7,7.3-2,9.3-5.9,9.3C791.4,609.9,789.9,609.1,788.2,607
	L788.2,607z M795.9,606.2c0.5-1,1.2-3.3,1.6-5.2c0.5-2.9,0.2-4-2.2-6.9l-2.9-3.4l-2.2,3.5c-1.2,1.9-2.2,4.5-2.2,5.8
	c0,2.5,3.9,7.9,5.7,8C794.4,608,795.4,607.2,795.9,606.2L795.9,606.2z M812.2,588.3c-9.2-9.7-12.2-15.3-12.2-23.1
	c0-3.6,0.8-7.3,2-9.8c1.1-2.2,1.9-4.7,2-5.5s0.4-2,0.9-2.5c0.5-0.5,2.1-4.1,3.5-8c1.5-3.8,3.3-8.3,4-10c0.8-1.7,1.7-4,2-5.2
	c0.3-1.2,1.9-3.6,3.5-5.2c4.1-4.4,8.5-4.2,14.2,0.6c2.4,2,5.3,4.6,6.4,5.8s4.4,4.3,7.3,7c2.8,2.7,5.4,6,5.8,7.3
	c0.4,1.7-0.5,4.6-3,9.5c-2,3.9-3.6,7.5-3.6,8.1s-0.9,3.1-2.1,5.6c-4.2,9.2-4.9,10.7-7.3,17.1c-5,13.1-7.4,16-13.1,16
	C820.1,596,818.2,594.6,812.2,588.3L812.2,588.3z M825.7,592.5c2.4-1.7,4.3-5.2,7.9-14.5c2.4-6.4,3.1-7.9,7.3-17.1
	c1.2-2.5,2.1-5.1,2.1-5.7s1.5-4.1,3.4-7.7l3.4-6.5l-2.2-2.8c-1.2-1.5-3.6-4-5.4-5.6c-1.8-1.5-5.8-5.3-9-8.3s-6.6-5.7-7.6-6
	c-4.5-1.4-8,3.9-15.3,23.1c-1.5,3.8-3.1,7.4-3.5,8s-0.9,1.6-0.9,2.5s-0.9,3.3-2,5.5c-4.3,8.8-1.5,16.6,10.2,28.8
	c4,4.2,7.8,7.7,8.3,7.7C823.1,594,824.5,593.3,825.7,592.5L825.7,592.5z M816.1,571.3c-2.8-3.2-3.2-4.3-2.8-7.8
	c0.3-2.2,1.4-6.1,2.6-8.7c1.2-2.6,2.1-5,2.1-5.3s0.8-2.5,1.9-4.8s2.1-5,2.5-5.9c0.9-2.7,4.8-2.1,8.4,1.3c2.7,2.5,3.2,3.8,3.2,7.4
	c0,2.6-0.6,4.8-1.5,5.6c-0.8,0.7-1.5,1.9-1.5,2.8c0,0.8-0.9,3.4-1.9,5.6s-2.5,5.6-3.2,7.4c-1.4,3.8-3.5,6.2-5.3,6.2
	C819.9,575,817.9,573.3,816.1,571.3L816.1,571.3z M823.5,567.8c1-2.3,2.6-6.1,3.7-8.4c1-2.3,1.9-4.8,1.9-5.6s0.7-2.1,1.5-2.8
	c2.4-2,1.8-5.7-1.7-8.9c-3.1-2.9-4.8-3.2-4.8-0.8c0,0.7-0.9,3-2,5.2s-1.9,4.4-2,4.8s-0.9,2.7-2,5c-3.4,7.5-3.5,9-0.4,12.5
	c1.5,1.7,3.1,3.2,3.4,3.2S822.5,570.1,823.5,567.8L823.5,567.8z M97.3,719.8c-1.1-1.6-1.6-314.6-0.6-353.2c0.7-27.2,0.9-30,2.5-30.3
	c1.3-0.3,3.2,2.7,8.1,13c7.5,15.6,11.9,24.9,19.4,41.3c6.7,14.6,10.1,22,16,34.5c2.5,5.2,6.7,14.5,9.5,20.5c2.8,6,7,15.3,9.5,20.5
	c2.5,5.2,6.9,14.9,10,21.5s7,15.1,8.8,19c5.7,12,12.5,26.6,17.7,38c2.8,6,7,15.3,9.5,20.5c4.3,9.1,12.5,26.8,17.3,37.5
	c1.2,2.8,4.9,10.6,8.2,17.5c10.1,21.1,13.8,30,13.8,33.1c0,2.7-0.6,3.3-8.8,7.1c-4.8,2.2-14.8,6.8-22.2,10.1s-16,7.1-19,8.6
	s-12.2,5.6-20.5,9.3c-25.4,11.4-45.7,20.5-52.5,23.7c-16.1,7.5-20.5,9.3-23.1,9.3C99.4,721,97.8,720.4,97.3,719.8z M108.6,715.9
	c3.8-1.7,9.8-4.5,13.4-6.1c6.8-3.2,27.1-12.4,52.5-23.7c8.2-3.7,17.5-7.9,20.5-9.3c3-1.4,11.6-5.3,19-8.6c22.7-10.1,31-14.1,31-15.1
	c0-1.2-6.1-15-13.8-31.1c-3.3-6.9-7-14.8-8.2-17.5c-4.8-10.7-13-28.4-17.3-37.5c-2.5-5.2-6.8-14.5-9.5-20.5c-5.2-11.4-12-26-17.7-38
	c-1.8-3.9-5.8-12.4-8.8-19s-7.5-16.3-10-21.5c-2.5-5.2-6.8-14.5-9.5-20.5c-2.8-6-7-15.3-9.5-20.5c-6.2-13.1-9.7-20.7-15.5-33.5
	c-6.5-14.2-14-30.2-20.7-44l-5.3-11L98.5,381c-0.9,54.5-0.3,335.1,0.8,336.7c0.4,0.7,1.2,1.2,1.6,1.2
	C101.4,719,104.8,717.6,108.6,715.9L108.6,715.9z M123.1,599.1c-2.3-2.3-2.8-7-1.1-10.1c1.2-2.3,7.2-4.7,14.7-6
	c3.2-0.5,11.2-2.1,17.8-3.6c18.4-4,26.8-5.5,29.6-5.5c1.5,0,3.7,1.2,5.3,2.9c2.2,2.3,2.7,3.6,2.4,6.8l-0.3,3.9l-7,1.1
	c-17.9,2.9-32.5,5.3-38.3,6.3c-3.5,0.6-7.5,2-9,3.1s-4.7,2.2-7.3,2.6C126,601.1,124.9,600.9,123.1,599.1z M135.2,595.9
	c2.9-2.1,3.2-2.1,47.3-9.3c5.8-0.9,7-1.5,7.3-3.2c0.2-1.2-0.9-3.2-2.6-4.8l-2.9-2.8l-7.9,1.5c-4.3,0.8-13.3,2.7-19.9,4.1
	c-6.6,1.4-14.6,3-17.8,3.6c-10.3,1.8-15.7,4.8-15.7,8.9c0,0.6,0.9,2,2,3.1c1.5,1.5,2.8,1.8,4.8,1.4
	C131.3,598.1,133.7,597,135.2,595.9L135.2,595.9z M112.6,576.8c-0.9-1.2-1.6-2.6-1.6-3.1s-0.6-2.3-1.4-4c-0.8-1.7-2.6-5.8-4-9
	c-3.4-7.6-3.5-14.4-0.3-17.4c1.2-1.1,5-3.2,8.5-4.7c7.2-3,17.1-3.6,19.6-1.2c0.8,0.8,3.6,5.5,6.2,10.6s5.4,9.4,6.1,9.7
	c2.2,0.9,8.5-0.6,9-2.1c0.3-0.7-2.2-6.4-5.6-12.6c-4-7.4-6-12.1-5.8-13.8c0.2-2,1.4-3.2,4.8-4.9c5-2.5,9.2-2.9,10.8-1
	c2.6,3.1,21.2,36.4,21.2,37.9c0,0.9-0.6,2.1-1.3,2.7c-1.2,1-8,2.9-24.2,6.7c-7.7,1.8-14.7,1.8-18.9,0.1c-2.8-1.2-4.1-2.9-8-11
	c-2.6-5.3-5.1-9.8-5.6-10.2c-1.4-0.9-4.9,0.5-4.9,2c0,0.7,2,5.6,4.5,10.9s4.5,10.8,4.5,12.2c0,1.8-0.7,2.8-2.6,3.5
	c-1.4,0.5-4.1,1-5.9,1C115.1,579,113.6,578.3,112.6,576.8L112.6,576.8z M123.3,575.1c0.5-0.5-1.2-5.2-3.7-10.6
	c-2.6-5.5-4.6-11.2-4.6-13.1c0-2.7,0.5-3.5,2.4-3.9c5.6-1.4,6.8-0.4,12.1,10.1c4.7,9.4,5.3,10.1,9.2,11.5c3.7,1.3,5.1,1.3,12-0.2
	c16.1-3.4,25.5-6,26-7.4c0.3-0.8-3.8-8.9-9.1-18.1c-5.3-9.2-10.3-17.4-11-18.1c-1.1-1.1-2.1-1-5.9,0.7c-2.5,1.1-4.8,2.5-5.1,3
	c-0.3,0.5,2.1,5.9,5.4,12c6.9,12.6,7.6,16.6,3.3,18.2c-1.5,0.6-4.7,0.9-7.2,0.7l-4.6-0.3l-5.3-10c-2.9-5.5-5.9-10.3-6.5-10.7
	c-2.4-1.5-8.9-0.7-15,1.8c-3.4,1.4-7.2,3.5-8.5,4.7c-1.3,1.2-2.2,3.3-2.2,4.8c0,1.5,1.2,5.3,2.6,8.6c1.4,3.2,3.2,7.3,4,9
	c0.8,1.7,1.4,3.5,1.4,4s0.7,1.9,1.6,3.2c1.3,1.9,2.2,2.2,4.7,1.7C121,576.2,122.8,575.6,123.3,575.1L123.3,575.1z M303.8,652.3
	L274,652v-3.3c0-1.8,0.6-4.2,1.4-5.2c1.4-2,22.9-40.4,29.4-52.5c1.9-3.6,6.7-12.1,10.5-19s9.5-17,12.5-22.5s5.8-10.5,6.2-11
	c0.4-0.5,2.7-4.6,5-9s11.1-20.1,19.3-35s16.4-29.5,18-32.5s6.1-11.1,10-18s9.5-17,12.5-22.5c8.6-15.7,10.4-18.9,11.2-20
	c0.4-0.5,2.3-3.9,4.2-7.5c4.4-8.1,12.6-23,13.8-25c0.5-0.8,6.2-11,12.6-22.5s14.7-26.4,18.4-33c3.7-6.6,8.7-15.6,11.1-20
	s4.8-8.7,5.4-9.6c1-1.6,3.9-6.8,8.8-15.9c1.7-3.2,3.2-4.6,4.9-4.8c1.3-0.2,2.9,0.3,3.5,1c1.2,1.5,19.3,33.8,19.3,34.5
	c0,0.3,1.8,3.5,4,7.3c4.2,7.2,15,26.8,28.2,51c4.3,8,8.3,15.2,8.9,16c0.5,0.8,1.3,2.2,1.7,3c2.5,5.5,16.9,30.3,22.6,38.9
	c7.8,11.8,13.7,22.4,13.7,24.6c0,0.8,0.9,3.4,2.1,5.7c2.2,4.5,2.7,5.5,6.4,12.2c1.2,2.2,4.4,8.1,7.1,13.1c2.7,5,5.6,10.2,6.4,11.7
	c0.8,1.5,5.3,9.6,9.9,18c4.6,8.4,9.4,17.1,10.6,19.3c1.2,2.2,5.9,10.8,10.3,19c4.5,8.2,8.5,15.7,9.1,16.5c1.1,1.8,8.9,15.9,13.8,25
	c1.9,3.6,4.6,8.5,6,11s6.1,11,10.4,19c4.3,8,8.3,15.2,8.8,16c4.1,6.4,12,22.1,12,23.9c0,1.2-0.1,2.2-0.2,2.2
	C702.5,652.3,326.3,652.6,303.8,652.3L303.8,652.3z M701.5,649.8c0.3-0.3-8.8-17.5-11.5-21.8c-0.5-0.8-4.5-8-8.8-16s-9-16.5-10.4-19
	s-4.1-7.4-6-11c-4.9-9.1-12.7-23.2-13.8-25c-0.5-0.8-4.6-8.2-9.1-16.5s-9.1-16.8-10.3-19s-6-10.9-10.6-19.3s-9.1-16.5-9.9-18
	c-0.8-1.5-3.7-6.8-6.4-11.7c-2.7-5-5.9-10.8-7.1-13.1c-3.7-6.7-4.2-7.7-6.4-12.2c-1.1-2.4-2.1-4.9-2.1-5.7c0-2.1-5.9-12.8-13.7-24.6
	c-5.7-8.6-20-33.4-22.6-38.9c-0.4-0.8-1.1-2.2-1.7-3s-4.5-8-8.9-16c-13.1-24.2-23.9-43.8-28.2-51c-2.2-3.8-4-7.1-4-7.3
	c0-0.7-18-33-19.3-34.5c-0.6-0.7-1.4-0.9-1.8-0.5s-2.7,4.4-5,8.8s-4.9,8.7-5.6,9.6s-1.4,1.8-1.4,2.2s-1.7,3.7-3.8,7.4
	c-5.2,9.3-16.6,29.7-30.6,54.8c-6.4,11.5-12.1,21.7-12.6,22.5c-1.2,2-9.4,16.9-13.8,25c-1.9,3.6-3.8,7-4.2,7.5
	c-0.8,1.1-2.6,4.3-11.2,20c-3,5.5-8.6,15.6-12.5,22.5s-8.3,15-10,18s-9.7,17.6-18,32.5c-8.3,14.9-17,30.6-19.3,35
	c-2.4,4.4-4.6,8.5-5,9s-3.2,5.5-6.2,11s-8.6,15.6-12.5,22.5s-8.6,15.4-10.5,19c-6.5,12.1-28,50.5-29.4,52.5c-3.1,4.5-3,4.5,28.4,4.9
	C342.8,650.8,701,650.3,701.5,649.8L701.5,649.8z M400.7,573.3c-0.4-0.4-0.7-9.9-0.7-21.2c0-18.7,0.2-20.8,2.1-24.6
	c1.3-2.5,3.6-5,5.9-6.4c3.7-2.1,5-2.2,23.4-2.2c16.4,0,19.7-0.3,21.1-1.6c1.6-1.6,2-4.4,0.9-8.2c-0.6-2.2-0.6-2.2-26.7-2.5
	l-26.1-0.3l-0.3-9.7c-0.3-9.6-0.3-9.7,2.2-10.4c1.4-0.3,15.5-0.5,31.3-0.3c26.3,0.3,29.1,0.5,32,2.3c1.8,1.1,4.2,3.3,5.5,5
	c2.2,2.9,2.3,3.9,2.3,19.6c0,14.8-0.2,16.8-1.9,19.1c-1.1,1.4-3.1,3.4-4.5,4.5c-2.3,1.7-4.8,2-23.8,2.4c-17.5,0.4-21.5,0.8-22.2,2
	c-1.1,1.8-1.3,10-0.2,11.7c0.6,0.9,7.5,1.3,26.7,1.5l26,0.3v9.5v9.5l-36.1,0.3C417.6,573.9,401.1,573.7,400.7,573.3L400.7,573.3z
	 M471.5,564v-7.5l-26-0.3c-19.2-0.2-26.2-0.6-26.7-1.5c-1.1-1.7-1-13.9,0.2-15.7c0.8-1.2,4.8-1.6,22.2-2c19.1-0.4,21.6-0.7,23.8-2.4
	c1.4-1.1,3.4-3.1,4.5-4.5c1.7-2.3,1.9-4.2,1.9-17.1c0-13.6-0.1-14.7-2.3-17.6c-1.3-1.7-3.7-3.9-5.5-5c-2.9-1.7-5.7-2-30-2.3
	c-14.7-0.2-27.9-0.1-29.3,0.3c-2.5,0.6-2.5,0.8-2.2,8.4l0.3,7.7l26.1,0.3c26.1,0.3,26.1,0.3,26.7,2.5c0.3,1.2,0.6,4.1,0.6,6.4
	c0,7.2-0.5,7.3-22.6,7.3c-18.3,0-19.7,0.1-23.4,2.2c-2.4,1.4-4.7,3.8-5.9,6.4c-1.9,3.7-2.1,5.9-2.1,22.6c0,10.2,0.3,18.8,0.7,19.2
	c0.4,0.4,16,0.6,34.8,0.4l34.1-0.3V564z M500.9,571.8c-2-1.2-4.6-3.8-5.8-5.9c-2-3.5-2.2-5.1-2.2-23.2c0-10.7,0.3-20.2,0.6-21.1
	c0.5-1.3,2.3-1.6,9.4-1.6s8.9,0.3,9.4,1.6c0.3,0.9,0.6,7.8,0.6,15.4c0,11.3,0.3,14.1,1.6,15.4c1.3,1.3,4.8,1.6,22.2,1.6
	c11.4,0,21.4-0.4,22.2-1c1.2-0.8,1.6-4.5,1.8-20.8c0.2-11.9-0.1-20.9-0.7-22.5l-1-2.7l-32.8-0.3l-32.8-0.3l-0.3-3.7
	c-0.4-5,3.5-11.6,8.4-14.3c3.5-1.9,5.6-2,35.9-2c29.3,0,32.4,0.2,34.2,1.8c1.1,1,2.4,1.8,3,1.8s2.1,1.7,3.4,3.8
	c2.3,3.7,2.4,4.2,2.7,35.1c0.3,30.4,0.2,31.5-1.9,35.8c-1.2,2.5-3.8,5.6-5.8,6.9l-3.6,2.5l-32.5,0
	C505.6,573.9,504.4,573.8,500.9,571.8L500.9,571.8z M571.2,569.5c2-1.4,4.6-4.5,5.8-6.9c2.1-4.3,2.2-5.4,1.9-33.8
	c-0.3-28.8-0.3-29.4-2.7-33.1c-1.3-2.1-2.8-3.8-3.4-3.8c-0.6,0-1.9-0.8-3-1.8c-1.8-1.6-4.8-1.8-32.6-1.8c-29.9,0-30.7,0.1-34.1,2.2
	c-4,2.5-8.6,10.2-7.7,12.7c0.6,1.5,4,1.6,33.2,1.6H561l1,2.7c0.6,1.6,0.9,11.2,0.7,24.5c-0.3,18.1-0.6,22-1.8,22.8
	c-0.8,0.5-11.7,1-24.2,1c-19.3,0-22.9-0.2-24.2-1.6c-1.3-1.3-1.6-4.2-1.6-15.4c0-7.6-0.3-14.6-0.6-15.4c-0.5-1.2-2.1-1.6-7.4-1.6
	s-6.9,0.4-7.4,1.6c-0.3,0.9-0.6,9.4-0.6,19.1c0,16.1,0.2,17.8,2.2,21.2c1.2,2.1,3.8,4.7,5.8,5.9c3.4,2.1,4.8,2.1,34.1,2.2l30.5,0
	L571.2,569.5L571.2,569.5z M256.6,626.2c-0.8-1.5-3.5-7.5-6.1-13.2c-5.1-11.3-25.7-56.3-30.7-67c-1.7-3.6-5.5-11.9-8.5-18.5
	s-6.7-14.7-8.3-18c-13.8-29.8-17-36.7-17-37.1c0-0.2-2.3-5.3-5.1-11.2c-4.9-10.4-13.3-28.4-17.9-38.7c-1.2-2.8-4.7-10.2-7.7-16.5
	s-7.5-16-10-21.5c-5.5-12.3-7.3-16.1-16.3-35c-3.9-8.2-8-17-9-19.5c-1-2.5-4.6-10.4-8-17.5c-9.7-20.3-11-23.4-11-26.5
	c0-3.5,0.4-3.6,13.5-4.5c30.1-2,39.1-2.6,58.5-4c11.8-0.9,30.7-2.2,42-3.1c26.5-2,43-3.2,61-4.4c24.7-1.7,56.9-4.1,70-5.1
	c6.9-0.5,19.5-1.4,28-2s20.9-1.5,27.5-2c26.2-2.1,61.8-4,63.6-3.4c1.1,0.3,1.9,1.5,1.9,2.7c0,1.2-3.7,8.9-8.2,17.2
	c-4.5,8.3-9.7,18-11.6,21.6s-6.6,12.1-10.5,19s-10.4,18.7-14.6,26.3c-4.2,7.6-8.7,15.7-9.9,18c-1.3,2.3-8.2,14.8-15.4,27.7
	c-17.2,31-17,30.7-20.6,36.8c-1.7,2.9-3.1,5.5-3.1,5.7c0,0.4-10.7,19.7-13,23.5c-1.1,1.7-18.2,32.7-23,41.5c-1.8,3.3-4,7.4-5,9
	s-2.9,5-4.2,7.5c-1.4,2.5-3.6,6.5-5,9s-5,9-8,14.5c-5.2,9.4-9.7,17.4-32.8,58.5c-5.1,9.1-10.9,19.4-12.8,23s-4.2,7.3-5,8.2
	C261.9,629.9,258.3,629.5,256.6,626.2z M266.8,617.7c2.1-3.9,8.1-14.6,13.2-23.7c20-35.6,27.5-48.9,32.8-58.5c3-5.5,6.6-12,8-14.5
	s3.6-6.5,5-9c1.4-2.5,3.3-5.9,4.2-7.5s3.2-5.7,5-9c4.8-8.8,21.9-39.8,23-41.5c2.3-3.8,13-23.1,13-23.5c0-0.2,1.4-2.8,3.1-5.7
	c3.6-6.1,3.4-5.8,20.6-36.8c7.2-12.9,14.1-25.4,15.4-27.7s5.8-10.4,9.9-18s10.7-19.4,14.6-26.3s9.1-16.3,11.6-21s7.7-14.3,11.6-21.5
	c5.1-9.5,6.7-13.2,5.7-13.7c-1.2-0.7-31.9,0.9-59.6,3.1c-6.9,0.5-19.5,1.5-28,2s-21.1,1.5-28,2c-13.1,1-45.3,3.3-70,5.1
	c-18,1.3-34.5,2.5-61,4.4c-46.3,3.4-71.3,5.2-101.7,7.2c-5.6,0.4-10.7,1-11.4,1.4c-1.5,0.9-0.7,3.1,9,23.3c3.9,8.2,8,16.9,9,19.5
	c1,2.6,5.1,11.4,9,19.7c9,18.9,10.8,22.7,16.3,35c2.5,5.5,6.9,15.2,10,21.5s6.5,13.8,7.7,16.5c4.6,10.4,13,28.4,17.9,38.7
	c2.8,5.9,5.1,10.9,5.1,11.2c0,0.4,3.2,7.3,17,37.1c1.5,3.3,5.3,11.4,8.3,18s6.9,14.9,8.5,18.5c5,10.7,25.6,55.7,30.7,67
	c7.2,15.9,7.4,16.3,9,15C262.3,625.3,264.7,621.6,266.8,617.7L266.8,617.7z M271,425.6c-3.6-1.9-7.9-4.2-9.5-5
	c-6.9-3.6-14.2-8-17.6-10.7c-2.5-2-4-4.3-4.9-7.4c-2.1-7.4-0.9-11.4,7.5-26c1.3-2.2,3.6-6.5,5.1-9.5s3.5-6.3,4.3-7.3
	c1.4-1.6,1.2-2-1.5-4.2c-1.6-1.3-4.1-2.4-5.5-2.4c-1.9,0-3,0.8-4.2,3.2c-0.9,1.8-3.9,7.3-6.7,12.2c-2.8,5-5.7,10.4-6.6,12
	c-0.8,1.6-3,5.7-4.8,9c-2.8,5-3.9,6.1-6.3,6.3c-2.7,0.3-10.4-3-13.9-5.9c-2.6-2.2-2-3.9,6.6-19.4c2.2-3.9,4.6-8.4,5.4-10
	c0.8-1.6,3.1-5.7,5-9s4.1-7.1,4.8-8.5c3.6-7,6-9.8,10.1-11.8c3.5-1.7,5.3-2.1,8.8-1.5c4.6,0.7,9.7,2.9,16.3,6.9
	c2.2,1.3,4.9,2.8,6,3.3s3.4,2.2,5.1,3.8c3.7,3.5,6.3,12.3,4.5,15.7c-0.6,1.2-1.6,3.3-2.1,4.7s-2.8,5.6-5,9.5s-5.7,10.3-7.7,14.3
	l-3.8,7.3l3,2.2c4,2.9,8.1,4.6,9.3,3.8c0.5-0.4,3.2-4.7,5.8-9.6c2.7-5,5.9-10.8,7.1-13c1.3-2.2,2.6-4.7,3-5.5s2.4-4.5,4.6-8.2
	c3.4-5.9,4.3-6.8,6.8-6.8c4.9,0,15.1,6.7,14.9,9.9c0,0.9-0.9,2.9-2,4.6s-2.6,4.4-3.5,6s-3.3,6.1-5.5,10c-2.2,3.9-4.6,8.4-5.4,10
	s-3.3,6.1-5.5,10c-2.2,3.9-5.4,9.8-7.1,13.2s-3.4,6.3-3.8,6.3c-0.4,0-1.6,0.2-2.7,0.5C278.3,428.9,274.9,427.7,271,425.6L271,425.6z
	 M284,419.8c2.9-5.8,4.4-8.6,12.1-22.2c1.5-2.8,4.2-7.7,5.9-11s4.2-7.8,5.5-10c4.3-7.2,4.7-8.6,3.1-10.4c-0.8-0.9-3.6-2.7-6.1-4.1
	l-4.7-2.4L298,362c-1,1.3-3.2,5.1-5,8.4c-1.8,3.3-5,9.2-7.1,13.1c-2.2,3.9-5.4,9.8-7.1,13.3c-3.6,7-5.8,8.3-11.1,6.1
	c-5.9-2.4-8.7-5.1-8.7-8.2c0-2.5,4.9-12.7,12.7-26.2c1.3-2.2,2.7-5.1,3.3-6.5c0.6-1.4,1.4-3.2,1.9-4c0.5-0.9,0.3-3.4-0.5-6.1
	c-1.3-4.3-4.6-7.9-9.4-10.2c-0.8-0.4-3.3-1.8-5.5-3.1c-7.1-4.3-12.7-6.5-16.1-6.5c-5.8,0-10.8,4.2-15.2,13c-0.7,1.4-2.8,5.2-4.8,8.5
	c-1.9,3.3-4.2,7.4-5,9c-0.8,1.6-3.3,6.1-5.4,10c-7.5,13.5-7.9,14.3-6.5,15.5c2.6,2.2,10.9,6.1,12,5.7c0.6-0.2,2.4-2.8,3.9-5.8
	s3.8-7.2,5-9.4s4.1-7.4,6.3-11.5s5.2-9.4,6.4-11.7c3.3-6.1,7.7-6.7,14.1-2c1.9,1.4,2.8,3,2.8,4.8c0,1.5-0.4,3-0.9,3.3
	s-2.4,3.4-4.1,6.8c-1.7,3.4-4.2,8-5.5,10.2c-3.5,6.1-7.3,13.8-8,16.2c-1.1,3.8,1.5,10.2,5.4,13.2c3.4,2.7,11.1,7.3,17.6,10.6
	c1.6,0.8,5.2,2.8,8,4.4C279.1,427.4,280.3,427.1,284,419.8L284,419.8z M714.2,626.8c-0.6-1.2-2.8-5.2-4.8-8.8
	c-4-7.1-4.9-8.8-14.4-26c-3.5-6.3-7.3-13.2-8.4-15.2s-4.7-8.6-8-14.5c-3.2-5.9-10.4-18.9-15.9-28.8c-19.1-34.4-25.5-46.1-30.3-55
	c-2.6-5-5.8-10.6-7-12.5s-4.2-7.3-6.7-12s-5.6-10.4-6.9-12.7s-5-9.1-8.3-15s-10.8-19.5-16.8-30.2c-6-10.6-10.8-19.6-10.8-19.8
	c0-0.3-2.4-4.6-5.3-9.6s-7.3-12.8-9.7-17.2s-5.4-9.8-6.6-12C544,318.7,536,303.8,536,303.3c0-0.3-0.6-1.3-1.4-2.2s-5.9-10-11.5-20.2
	c-5.6-10.2-10.1-19.8-10.1-21.2c0-2.5,0.2-2.6,5.4-2.6c3,0,11,0.4,17.8,1s22.7,1.7,35.3,2.5c12.7,0.9,28.4,2,35,2.5s19,1.4,27.5,2
	c8.5,0.6,24,1.7,34.5,2.5c10.5,0.8,26.2,1.9,35,2.5c8.8,0.6,18.5,1.3,21.5,1.6s12,0.9,20,1.4s30,2.1,49,3.5
	c31.8,2.4,43.2,3.2,72,5.1c5.8,0.4,11.3,1.1,12.2,1.6c1.1,0.5,1.8,2,1.8,3.8c0,1.6-2.9,8.9-6.4,16.2s-8.4,17.8-10.9,23.3
	c-2.5,5.5-7.6,16.3-11.2,24c-11.2,23.6-14,29.5-20.3,43c-3.3,7.1-9,19.2-12.6,26.8c-3.6,7.6-6.6,14-6.6,14.2s-4.1,9.1-9.1,19.7
	s-10.6,22.5-12.4,26.3c-11.1,23.7-18.8,40.3-23,49c-2.6,5.5-5.9,12.5-7.3,15.5c-2.2,4.8-6.8,14.4-23.8,50.5c-2.3,5-6.4,13.7-9,19.5
	c-2.6,5.8-5.4,11.3-6.3,12.2C719.1,629.7,715.5,629.5,714.2,626.8z M725.5,613c2.6-5.8,6.7-14.5,9-19.5c17-36.1,21.5-45.7,23.8-50.5
	c1.4-3,4.7-10,7.3-15.5c4.1-8.7,11.9-25.3,23-49c1.8-3.9,7.4-15.7,12.4-26.3s9.1-19.5,9.1-19.7s3-6.6,6.6-14.2
	c3.6-7.6,9.3-19.7,12.6-26.8c6.2-13.5,9-19.4,20.3-43c3.7-7.7,8.7-18.5,11.2-24s7.4-16,10.9-23.3c3.5-7.3,6.4-13.7,6.4-14.2
	c0-1.8-3.8-2.7-14-3.4c-28.8-1.9-40.2-2.7-72-5.1c-19-1.4-41-3-49-3.5s-17-1.2-20-1.4s-12.7-1-21.5-1.6c-8.8-0.6-24.8-1.7-35.5-2.5
	c-44.1-3.3-62.3-4.6-76.5-5.5c-8.2-0.5-20.4-1.4-27-1.9c-26.3-2.1-46.6-3.3-47.1-2.7c-0.6,0.6,18.8,37,21.3,39.8
	c0.8,0.9,1.4,1.9,1.4,2.2c0,0.5,8,15.4,18.4,34.2c1.2,2.2,4.2,7.6,6.6,12s6.8,12.1,9.7,17.2s5.3,9.4,5.3,9.6s4.9,9.2,10.8,19.8
	c6,10.6,13.5,24.2,16.8,30.2s7,12.7,8.3,15s4.4,8,6.9,12.7c2.5,4.7,5.6,10.1,6.7,12c1.2,1.9,4.3,7.5,7,12.5
	c4.8,8.9,11.2,20.6,30.3,55c5.5,9.9,12.6,22.9,15.9,28.8c3.2,5.9,6.8,12.5,8,14.5s4.9,8.9,8.4,15.2c9.5,17.2,10.4,18.9,14.4,26
	c2,3.6,4.2,7.5,4.8,8.8c1.1,2.2,1.2,2.2,2.8,0.5C720,624.3,722.9,618.8,725.5,613L725.5,613z M699.5,459.7c-1.1-1.8-2.3-4.1-2.8-5.2
	c-0.5-1.1-1.5-2.7-2.4-3.7c-2.8-3.1-1.3-5.9,5.1-9.5c3.3-1.9,7.3-4.1,9-4.9c5.5-2.8,12-6.5,12.9-7.4c0.8-0.8-0.6-4-6.7-15
	c-1.4-2.5-3.9-7.3-5.7-10.7c-1.7-3.4-3.5-6.5-3.9-6.7c-1.5-0.9-2.1-8.7-1-12.8c1.4-5,5.6-9.1,14.1-13.6c6.8-3.6,6.5-3.4,15.4-8.6
	c8.4-4.9,10.3-4.7,13.4,1.2c1.4,2.6,3,5.1,3.7,5.5c1.4,0.9,1.7,5.6,0.5,7.3c-0.4,0.6-2.8,2.1-5.2,3.4s-6.8,3.5-9.5,5
	c-7.9,4.1-9.5,5.4-9.4,7.6c0,1.1,1.4,4.3,3,7s3.5,6.4,4.3,8.1s1.9,3.4,2.5,3.8c0.6,0.4,1.1,1.5,1.1,2.5c0,2.3,3.6,5.5,5.2,4.7
	c0.7-0.4,4.4-2.4,8.3-4.6c3.8-2.2,8.2-4.5,9.8-5.1s2.8-1.5,2.8-2c0-0.5,1.3-0.9,2.8-0.9c3,0,5.5,2.1,6.6,5.7
	c0.4,1.2,1.3,2.7,2.1,3.4c0.9,0.7,1.5,2.9,1.4,5.3c0,4-0.2,4.2-5.8,6.9c-3.1,1.5-8.9,4.5-12.7,6.7s-8.3,4.6-10,5.4s-6.2,3.3-10,5.5
	s-9.7,5.4-13,7.2c-6.9,3.6-10,5.4-16.9,9.2c-2.7,1.5-5.4,2.7-6,2.7C702,463,700.6,461.5,699.5,459.7L699.5,459.7z M723.5,449
	c3.8-2.1,8.6-4.7,10.5-5.7c8.1-4.4,15.9-8.7,22.5-12.3c3.8-2.1,9.6-5.1,12.7-6.7c6.3-3.1,7.1-4.8,3.8-9c-1.1-1.4-2-3.1-2-3.8
	s-0.9-2-2.1-3.1c-1.3-1.2-2.3-1.5-2.8-0.8c-0.4,0.6-1.9,1.7-3.4,2.5s-5.3,2.7-8.5,4.4s-6.9,3.8-8.2,4.8c-1.3,1-3.1,1.8-3.9,1.8
	c-2.2,0-6.2-4-6.2-6.1c0-1-0.5-2.1-1.1-2.4s-1.7-2.1-2.5-3.8c-0.8-1.7-2.7-5.5-4.3-8.3s-3.2-6.7-3.6-8.6c-0.6-3-0.3-3.7,2.2-5.3
	c3.7-2.5,16.1-9.2,19.5-10.5c3.2-1.3,4.5-3.9,2.6-5.4c-0.7-0.6-2.4-3.2-3.8-5.8c-1.4-2.6-2.7-4.7-2.9-4.7s-2.7,1.4-5.4,3.1
	c-2.8,1.7-6,3.5-7.1,4c-3.4,1.5-12.8,6.9-16.9,9.7c-2.1,1.4-4.5,3.9-5.4,5.6c-1.9,3.6-1.9,10.3-0.1,12.5c0.7,0.9,2.6,4.1,4.1,7.1
	s3.9,7.5,5.3,10c6.9,12.3,8.6,16.3,7.6,17.8c-0.9,1.4-6.7,5-13.8,8.6c-1.7,0.8-3.7,1.9-4.5,2.5c-0.8,0.5-3.6,2.2-6.2,3.6l-4.7,2.6
	l2,2.5c1.1,1.4,2,2.9,2,3.4s1,2.2,2.1,3.8l2.1,2.9l6.6-3.5C713.5,454.4,719.7,451.1,723.5,449L723.5,449z M656.1,380.4
	c-1.2-2-2.1-3.8-2.1-4.1s-0.9-1.7-2-3.1c-2.5-3.2-2.6-7.1-0.2-7.9c1-0.3,2.4-1,3.2-1.5c0.8-0.5,2.8-1.6,4.5-2.4s6.2-3.3,10-5.4
	c3.8-2.2,9.7-5.3,13-7.1s7.8-4.2,10-5.5c2.2-1.3,6.4-3.6,9.2-5.1c3.9-2.1,5.2-3.3,5.2-5c0-3,2.5-5.7,8.6-9c6.7-3.6,9.5-3,12.3,2.9
	c2.6,5.3,2.7,12.1,0.3,16.9c-1.5,3.2-5.7,6.9-10.2,9.1c-0.8,0.4-4.7,2.5-8.5,4.6s-9.5,5.2-12.5,6.9s-7.5,4.1-10,5.5
	s-7.2,3.9-10.5,5.7s-8,4.2-10.4,5.6s-5.2,2.4-6.2,2.4S657.3,382.4,656.1,380.4L656.1,380.4z M674.5,374c3.3-1.7,8-4.3,10.5-5.7
	s7-3.9,10-5.5c3-1.6,8.7-4.7,12.5-6.9s7.7-4.2,8.5-4.6c7.2-3.5,12-9.6,12-15.3c0-2.9-3.3-10-5.2-11.1c-1.4-0.9-9.4,3.4-12.1,6.4
	c-1,1.1-1.8,3-1.8,4.2c0,1.7-1.3,2.9-5.2,5c-2.9,1.5-7,3.8-9.2,5.1s-6.7,3.7-10,5.5s-9.2,4.9-13,7.1s-8.3,4.6-10,5.4
	s-3.7,1.9-4.5,2.4s-2.3,1.2-3.3,1.5c-1.9,0.6-1.9,0.6,1.8,6.5c0.6,0.9,1.8,3.1,2.7,4.8l1.7,3.2l4.3-2.4
	C666.6,378.2,671.2,375.7,674.5,374z M837,261.4c-7.4-0.7-20.7-1.8-29.5-2.4c-40.6-2.8-58.5-4.1-77-5.5c-24.8-1.9-68-5.1-96.5-7.1
	c-11.8-0.8-33-2.4-47-3.5c-14-1.1-36.1-2.7-49-3.5c-30.5-2.1-33.5-2.4-35.4-3.8c-1.3-1-1.8-4.3-2.6-17.7
	c-1.2-21.2-2.5-157.4-1.6-162.3c0.6-3.4,1-3.7,4-3.7c3.3,0,6.7,1.7,34.6,18c6.9,4,16.5,9.6,21.5,12.5c11.7,6.8,46.5,27.1,88.3,51.5
	c18.3,10.7,34.5,20.1,36.1,21c1.5,0.8,11.2,6.4,21.6,12.5c10.3,6.1,20.2,11.8,21.9,12.8c7.9,4.6,39.9,23.3,41.5,24.2
	c1.9,1.1,21.2,12.4,24,14c0.9,0.6,5.2,3,9.5,5.5c4.3,2.5,8.6,4.9,9.5,5.5c2.7,1.6,22,12.8,27,15.6c12.8,7.3,19.5,11.6,20.4,13
	c0.6,0.9,0.7,2.3,0.4,3.2C857.9,263.3,856.2,263.3,837,261.4L837,261.4z M855.8,259.8c-0.4-1.1-7.1-5.4-19.9-12.7
	c-5-2.9-24.3-14-27-15.6c-0.9-0.6-5.2-3-9.5-5.5c-4.3-2.5-8.6-4.9-9.5-5.5c-2.8-1.6-22.1-12.9-24-14c-1.6-0.9-33.6-19.5-41.5-24.2
	c-1.7-1-11.6-6.8-21.9-12.8c-10.3-6.1-20-11.7-21.6-12.5c-1.5-0.8-17.8-10.3-36.1-21c-41.8-24.4-76.6-44.8-88.3-51.5
	c-5-2.9-14.6-8.5-21.5-12.5c-23.9-13.9-31.3-18-32.6-18c-0.7,0-1.6,1.6-2,3.7c-0.9,4.8,0.5,137.1,1.6,158.3
	c0.7,13.4,1.2,16.7,2.6,17.7c2,1.4,4.9,1.7,35.4,3.8c12.9,0.9,35,2.5,49,3.5s35.2,2.6,47,3.5c28.5,2,71.7,5.2,96.5,7.1
	c18.5,1.4,36.4,2.7,77,5.5c8.8,0.6,22.1,1.7,29.5,2.4C857,261.2,856.2,261.2,855.8,259.8L855.8,259.8z M656.9,207.7
	c-0.9-0.7-3-3.3-4.7-5.9s-3.8-4.9-4.4-5.1c-0.7-0.2-3.1,0-5.3,0.5c-2.2,0.5-7.4,1.5-11.5,2.3s-9.7,1.9-12.4,2.4
	c-5.7,1.2-10.6,0.2-15.7-3.2c-4-2.7-11.4-12.8-13-17.7c-0.6-1.9-3.6-8.4-6.5-14.4c-3-6-5.4-12-5.4-13.2c0-2.8,2.2-4.1,8.6-4.9
	c3.9-0.5,5.6-0.2,8.1,1.4c1.8,1.1,3.5,3.2,3.9,4.6s3.2,7.4,6.4,13.3c5.4,10.1,5.9,10.7,9.1,11c4.5,0.5,22.9-3,22.9-4.3
	c0-0.6-0.6-2.2-1.4-3.5c-8.7-15.8-10.6-19.7-10.6-21.7c0-2.7,3.2-4.3,8.7-4.3c2.6,0,4.2,0.8,6.2,2.8c1.5,1.6,3.3,4.1,4.2,5.7
	c0.8,1.6,7.2,12.9,14.2,25.1c13.7,23.9,15,27.5,10.2,29.3C664.9,209.4,658.8,209.2,656.9,207.7L656.9,207.7z M666.4,206
	c1.4-0.5,2.6-1.5,2.6-2s-5.7-11.1-12.8-23.3s-13.4-23.5-14.2-25.1c-0.8-1.6-2.7-4.2-4.3-5.9c-2.3-2.5-3.3-2.9-6-2.3
	c-1.8,0.4-3.6,1-4,1.4c-0.4,0.4,1.3,4.6,3.8,9.2c7.2,13.1,8.5,16,8.2,17.7c-0.4,2.2-16.3,5.4-24.7,5l-6.4-0.3l-5.6-10.5
	c-3.1-5.8-6.1-11.8-6.6-13.4s-2.4-3.7-4-4.7c-2.4-1.4-3.8-1.6-6.9-0.9c-2.1,0.5-4.3,1.3-4.8,1.8c-0.5,0.5,1.4,5.5,4.5,11.8
	c3,6,5.9,12.4,6.5,14.2c1.1,3.4,6,11.1,9.6,15.1c2.9,3.3,8.9,6.2,12.8,6.2c1.8,0,6.2-0.6,9.8-1.4c15.6-3.5,23.1-4.7,25-4.1
	c1.1,0.4,3.5,2.8,5.2,5.3C659.2,207.1,661.1,208.1,666.4,206z M121.3,259.5c-0.9-2.5,0.7-3.7,18.7-14.1c3.6-2.1,7.7-4.5,9.2-5.3
	c5.7-3.2,26.7-15.3,36.3-21c11-6.4,29.8-17.3,41.5-24c4.1-2.4,11.6-6.7,16.5-9.5c13.3-7.8,58.3-33.8,63.5-36.8
	c2.5-1.4,13.4-7.8,24.3-14.1c10.9-6.4,20-11.6,20.2-11.6s2.8-1.5,5.7-3.3c2.9-1.8,8.9-5.3,13.3-7.6c4.4-2.4,8.7-4.8,9.5-5.5
	c0.8-0.7,6.9-4.2,13.5-7.9c10.4-5.8,20.8-11.8,34.5-19.9c1.9-1.1,7.3-4.3,12-7s12.3-7.1,17-9.9s10.9-6.1,13.8-7.6
	c9.1-4.6,8.6-7.1,9.3,42.8c0.9,62.6,1,126.6,0.3,133.7c-0.5,4.4-1.1,6.3-2.2,6.6c-0.9,0.3-12.6,1.2-26.1,2
	c-13.5,0.9-36.9,2.5-52,3.5c-15.1,1.1-42.1,2.9-60,4s-41.3,2.7-52,3.5s-24.7,1.7-31,2c-6.3,0.3-16.4,1-22.5,1.5s-22,1.6-35.5,2.5
	c-13.5,0.8-31.2,2-39.5,2.5C121.5,261.5,122.1,261.5,121.3,259.5L121.3,259.5z M157.5,257c8.2-0.5,26-1.6,39.5-2.5
	c13.5-0.8,29.4-2,35.5-2.5s16.2-1.2,22.5-1.5c6.3-0.3,20.3-1.2,31-2s34.1-2.3,52-3.5s44.9-2.9,60-4s38.5-2.7,52-3.5
	s25.2-1.8,26.2-2.1c1.3-0.4,1.8-2.3,2.4-9.1c1-11.6-0.5-169.5-1.6-170.7c-1-1-5.9,1.2-18,8.3c-4.7,2.7-12.3,7.2-17,9.9
	s-10.1,5.8-12,7c-13.7,8-24.1,14.1-34.5,19.9c-6.6,3.7-12.7,7.3-13.5,7.9s-5.1,3.1-9.5,5.5c-4.4,2.4-10.4,5.8-13.3,7.6
	c-2.9,1.8-5.5,3.3-5.7,3.3s-9.3,5.2-20.2,11.6c-10.9,6.4-21.8,12.7-24.3,14.1c-5.2,2.9-50.2,29-63.5,36.8
	c-4.9,2.9-12.4,7.2-16.5,9.5c-11.7,6.7-30.5,17.6-41.5,24c-9.6,5.6-30.6,17.8-36.3,21c-12.1,6.8-22.4,13-25.3,15.3
	C123.2,259.3,120.4,259.3,157.5,257z M297.1,216.1c-2.4-1.5-0.6-6.4,6.5-17.3c3.7-5.7,8.2-12.8,10.2-15.8c1.9-3,4.5-7.1,5.7-9
	s4.4-6.9,7-10.9c2.6-4.1,5.2-9.3,5.7-11.5s2.4-6.2,4.3-8.8c2.6-3.5,4.3-4.9,6.9-5.3c2-0.4,4.3-0.1,5.6,0.5c1.9,1,2.1,1.8,1.7,5.1
	c-0.3,2.2-2.9,8-6,13.2c-3,5.1-11.4,19.4-18.7,31.8s-14.4,23.7-15.9,25.1c-1.7,1.8-4.1,2.8-7.1,3.2
	C300.5,216.7,297.9,216.6,297.1,216.1L297.1,216.1z M308.2,211.2c2.2-2.4,10.1-15.4,34.3-56.8c6.5-11.1,7.2-13.1,4.8-14.3
	c-1-0.5-2.8-0.6-4-0.1c-2.9,1.1-8.1,8.8-9.2,13.7c-0.5,2.2-3,7.3-5.7,11.4s-6.4,9.9-8.3,12.9c-3.7,5.9-4.5,7-14.4,22.5
	c-3.5,5.5-6.7,10.8-7.1,11.8c-0.6,1.5-0.1,1.8,3.1,1.8C304.7,214,306.3,213.3,308.2,211.2L308.2,211.2z M329.4,211.5
	c-1.2-1.9-1.5-3.6-0.9-7.2c0.9-5.9,10.2-24.2,16-31.2c2.4-2.9,4.6-6.5,4.9-8.1s1.4-3.3,2.4-3.8c1-0.6,5.9-1.5,10.8-2.1
	c11.7-1.4,25.5-4,27.6-5.1c1.8-1,6.2-9.8,5.3-10.7c-0.3-0.3-3.3,0-6.8,0.6c-10,1.9-24.6,4.2-26.2,4.2c-1,0-1.5-1-1.5-3.4
	c0-2.8,0.8-4.1,4.4-7.3c4.7-4.2,11-6.6,21.6-8.2c3.6-0.6,8.1-1.5,10-2c1.9-0.6,6.3-1,9.7-1c5.3,0,6.4,0.3,7.8,2.2
	c0.9,1.2,1.6,3,1.6,3.9c0,3.7-7.4,23.7-9.9,26.9c-2.2,2.7-2.9,4.9-3.3,10c-0.3,4.1-1.9,9.9-4.2,15.6c-2,5-3.6,9.7-3.6,10.4
	c0,2.2-8.1,11.5-12.7,14.5c-3.7,2.4-6,3.1-13.2,3.7c-4.8,0.4-15.3,0.8-23.4,0.8C331.1,214,331,214,329.4,211.5L329.4,211.5z
	 M367.2,211.1c7.1-0.6,9.5-1.3,13.2-3.7c4.6-3,12.7-12.2,12.7-14.5c0-0.7,1.6-5.3,3.6-10.4c2.3-5.7,3.8-11.5,4.2-15.6
	c0.4-5.1,1.1-7.3,3.3-10c1.5-1.9,4.3-8.2,6.2-14c3-8.9,3.3-10.8,2.2-12.5c-1.7-2.7-7.1-3-15.4-1.1c-3.6,0.8-8.4,1.8-10.6,2.1
	c-8.1,1.2-14.8,4-19.1,7.8c-4.5,4-5.9,7.3-2.6,6.3c2.7-0.8,21-3.7,27.5-4.3c5.6-0.5,5.8-0.5,5.8,2c0,3.4-3.7,11.5-5.8,12.6
	c-2.1,1.1-15.9,3.7-27.6,5.1c-4.9,0.6-9.8,1.5-10.8,2.1c-1,0.6-2.1,2.3-2.4,3.8s-2.5,5.2-4.9,8.1c-4.9,6-14.4,23.5-15.6,28.9
	c-0.6,2.6-0.4,4.2,0.7,5.9c1.4,2.1,2.1,2.2,14.2,2.2C352.8,211.9,362.4,211.5,367.2,211.1L367.2,211.1z M350.8,191.4
	c-1.6-1.7-0.6-6.3,2.2-10.2c1.6-2.2,3.4-4.3,3.9-4.7c1-0.6,9.2-1.8,21.4-3.2l5.8-0.7v4.2c0,5.6-3.6,11.8-7.5,13
	C372.5,191.2,351.7,192.4,350.8,191.4L350.8,191.4z M374.5,187.9c1.9-0.6,3.8-2.4,5.2-4.9c1.2-2.2,2.2-4.9,2.2-6.1
	c0-1.9-0.4-2.1-3.2-1.6c-1.8,0.3-6.8,1.1-11.2,1.6c-4.8,0.6-8.6,1.7-9.8,2.7c-2.9,2.6-6,8.2-5.3,9.4c0.5,0.8,3.5,0.9,9.8,0.4
	C367.4,189.2,372.8,188.4,374.5,187.9z"/>
<path id="path3298" d="M475.8,54.8c-0.2,0-0.3,0-0.5,0c-7,2.5-13.4,6.8-19.9,10.3c-24.5,14.3-49.1,28.2-73.5,42.6
	c-77.3,44.7-154.6,89.4-231.8,134.2c-8.6,5.2-17.6,9.9-25.8,15.7c-1.2,2.2,1.9,2,3.2,1.8c52.7-2.5,105.3-6.8,158-10.1
	c62-4.2,124-8,185.9-12.7c2.5-0.2,6.3,0,6.8-3.2c1.9-11.3,1.2-22.9,1.4-34.3c-0.2-46.2-0.6-92.4-1.7-138.6
	C477.7,58.8,478.4,55,475.8,54.8z M409.5,127c2,0.1,4.2,0.5,4.8,2.7c1.9,3.9-0.8,8.2-1.7,12c-2.3,7.3-5.8,14.2-9.3,20.9
	c-1.7,6.3-1.9,12.9-4.4,18.9c-2,5-3.3,10.2-5.5,15.1c-3.4,4.8-7.4,9.4-12.4,12.7c-7.1,3.7-15.4,3-23.2,3.6
	c-8.7,0.1-17.5,0.6-26.1-0.2c-3.4-1.9-2.6-6.4-2.1-9.6c2.7-8.6,7.2-16.7,12-24.4c3.4-5.1,7.2-10,9.6-15.7c1.3-2.2,4.5-1.7,6.6-2.4
	c10.5-1.8,21.3-2.6,31.4-5.8c3.8-1.4,4.8-5.9,6.6-9.1c0.8-1.2,0.8-3.5-1.2-3.4c-10.8,1-21.5,4-32.4,4.6c-1.7-4.1,1.7-7.8,4.9-9.9
	c8-6,18.2-6.5,27.7-8.7c4.2-0.9,8.5-1.4,12.8-1.3C408.1,127,408.8,127,409.5,127z M345.9,138.1c2.1,0.1,4.6,1,4.1,3.5
	c-1.1,8-6.6,14.5-10.2,21.5c-9.3,15.6-18.1,31.5-28.2,46.7c-2,3.3-5.3,5.9-9.2,5.8c-1.6-0.1-3.8,0.6-5.1-0.3c-1.2-1.7,0.5-4,1-5.7
	c6.7-12.4,14.9-23.9,22.3-35.9c4.7-7.8,10.5-15.1,13.1-23.9c2-4.3,4.5-9.2,9.1-11.2c0.7-0.2,1.5-0.4,2.3-0.4
	C345.3,138.1,345.6,138.1,345.9,138.1z M380.4,174.5c-0.2,0-0.4,0-0.6,0.1c-6.6,0.8-13.3,1.5-19.8,3.2c-4.1,1.6-6.5,5.8-8.1,9.7
	c-0.8,2,1.3,3.3,3.1,2.8c7-0.3,14.4,0,21.1-2.4c3.7-2.4,5.7-6.8,6.5-11C382.9,175.4,381.8,174.5,380.4,174.5z"/>
<path id="path3306" inkscape:connector-curvature="0" d="M502.2,53.5c-3,1.3-2.1,5.5-2.5,8.1c-0.6,30.6,0.1,61.1,0.3,91.7
	c0.5,24.6,0.3,49.2,2.1,73.7c0.5,2.9,0.2,7.4,3.8,8.2c10.9,1.9,22.2,2.1,33.2,3.1c88.9,6.4,177.7,13,266.6,19.4
	c16.1,1.2,32.3,2.5,48.3,3.9c1.5,0.4,3.4-1.1,2-2.5c-6.6-5.2-14.2-8.9-21.4-13.4c-104.2-60.3-208-121.2-312.1-181.6
	c-6.5-3.5-12.7-7.9-19.5-10.6C502.8,53.4,502.5,53.4,502.2,53.5z M633.4,146c3.6-0.7,6.1,2.4,7.9,5.1c7.2,11.2,13.4,23.1,20,34.6
	c3,5.9,6.9,11.5,8.5,17.9c0.6,1.7-0.2,3.5-2.1,3.7c-3.2,0.8-6.9,1.1-10.1-0.1c-3.7-3.3-5.6-8.4-9.8-11.1c-3.6-0.6-7.2,1.1-10.7,1.4
	c-8.1,1.3-16,3.8-24.2,4c-9.3-0.8-15.7-9-20-16.6c-4.5-8.6-8.2-17.6-12.3-26.4c-0.6-2.2-2.6-4.9-1.2-7c3.2-2.2,7.3-2.3,11.1-2.2
	c5.3,0.2,7.5,5.7,9.3,9.8c3.2,6.2,6,12.8,10.2,18.5c3.5,3.3,8.9,1.5,13.1,1.2c4.7-1,9.8-1.3,14.1-3.7c1.2-1.8-1.1-3.8-1.6-5.6
	c-3.1-6.6-7.2-12.7-9.6-19.6c-0.6-3,3.1-3.9,5.4-4C632.1,146,632.7,146,633.4,146L633.4,146z"/>
<path id="path3308" inkscape:connector-curvature="0" d="M727.2,677.2c-5.6,3.6-9,9.7-13.3,14.7c-33.2,43.4-65.9,87.3-99,130.8
	c-21.2,27.9-42.2,56.1-63.6,83.8c-1.2,2-3.7,3.5-3.9,5.9c1.4,2,3.7-0.6,5.3-1.1c46.7-26,92.9-52.7,139.4-79
	c15-8.5,30.1-16.9,44.9-25.8c37.2-21.5,74.6-42.8,111.2-65c1.9-1.6,5-2.5,5.8-5.1c-0.7-2.7-4.1-3.4-6.2-4.8
	c-30.8-14.5-62-28.3-92.8-42.6c-8.9-4-17.8-8.2-26.9-11.7l-0.4,0L727.2,677.2L727.2,677.2z M759.1,745.5c3.1,0.2,6.5-0.3,9.5,0.4
	c0.5,1.6,0.4,3.8-1.6,4.3c-4.3,2.3-9.5,1.1-14.2,1.5c-14.6-0.1-29.1,0.4-43.7-0.3c-1.9,0.2-1-2.5-0.5-3.5c2.5-2.1,6.1-1.5,9.1-1.9
	C731.5,745.5,745.3,745.6,759.1,745.5L759.1,745.5z M708.8,757.9c7.5,0.2,15.2-0.2,22.7,0.8c3.9,1.8-0.3,6.5-1,9
	c-3.7,6.8-7.1,14-12.2,19.9c-5,4.4-11.6,6.6-18.1,8c-12,2-24.4,2.2-36.6,2.2c-1.2,0.1-2.3-0.9-1.4-2c2.4-3.9,5.8-7.3,9.4-10.2
	c6.7-1.9,14-1,20.7-3.1c5-2.7,8.2-7.8,11.7-12.2c1.3-1.2,1.3-3.6-0.7-3.8c-2.6-0.8-6.3,0.2-8.2-2.1c-0.9-2.8,1.9-6.2,4.9-6.1
	C702.9,757.8,705.8,758,708.8,757.9L708.8,757.9z M754.2,758.3c4.3,0.3,9.3,0.5,12.6,3.6c2.2,3.2,0.6,7.5,0.4,11.1
	c-0.9,4.4-1.1,9.3-3.2,13.3c-3.1,1.9-7,1.1-10.5,1.6c-3.9-0.1-8,0.7-11.8-0.4c-1.7-0.5-2.2-2.3-1.5-3.8c2.5-7.5,4.9-15.3,8.7-22.4
	C750,759.3,752,758.2,754.2,758.3L754.2,758.3z"/>
<path id="path3310" inkscape:connector-curvature="0" d="M251.6,677.5c-7.5,2.2-14.5,6.1-21.8,9.1c-32,14.9-64.4,29.4-96.2,44.8
	c-2.4,1.4-5.4,2.2-7,4.7c1.6,2.5,4.9,3.7,7.2,5.4c29.3,17.3,59,33.9,88.4,51.1c20.5,11.7,40.9,23.6,61.3,35.6
	c47.6,27.1,95,54.8,142.5,82.2c1.8,0.5,3.8,2.9,5.6,1.6c0.5-2.2-2.1-3.9-3-5.7c-37.6-49.7-75.6-99.2-113.1-149
	c-19.3-25.3-38.2-50.9-58.2-75.6C255.9,680,254.4,677.4,251.6,677.5L251.6,677.5z M268.2,727c1.8-0.1,3.8,0.1,4.7,1.9
	c10,11.9,20.4,23.4,29.8,35.8c1.3,2.3,3.7,4.7,3.2,7.5c-1.6,1.5-4.3,1.4-6.3,2c-10.6,1.6-21.5,3.1-32.3,2.2
	c-4.6-1.5-6.9-7.2-5.8-11.7c6.5-2.4,13.8-2.1,20.1-5c2.1-1.7-0.8-4.1-1.7-5.7c-5.6-7.7-12.2-14.8-16.8-23c-0.8-2,0.9-4.3,3.1-3.9
	C266.9,727,267.5,727,268.2,727z M227.1,741.1c4.6-0.5,7,4.3,9.4,7.3c5.9,8.5,12,17,16.6,26.2c0.6,1.1,1,3.3-0.9,3.2
	c-5.5,0.7-10.5-2.9-13.5-7.1c-5.2-6.9-10.1-14.4-13.8-22.2c-0.7-2.1-1.9-5.3,0.1-7C225.6,741.1,226.4,741.1,227.1,741.1L227.1,741.1
	z M325.7,792.5c3.1,3.8,7.5,7.1,9.2,11.8c0.5,1.3-0.4,2.1-1.7,2c-17.6,0.8-35.3-1-52.9-0.9c-4.3-0.3-7.7,3.1-12,2.5
	c-5.9-0.3-11.8-5.5-11.1-11.7c0.1-1.6-0.6-4.7,1.7-4.9c10.6-1.2,21.4-0.9,32.1-1.3c10.6-0.2,21.2-0.4,31.8-0.5
	C323.9,790.5,324.8,791.5,325.7,792.5L325.7,792.5z"/>
<path id="path3312" inkscape:connector-curvature="0" d="M99.3,339.7c-1.6,10.9-0.9,22.3-1.3,33.5c-0.7,106.8-0.6,213.5,0.2,320.3
	c0.3,8.2-0.2,16.5,0.8,24.6c2.5,2.9,6.2-0.7,9-1.3c44.5-20.2,89.2-40,133.5-60.7c2.1-0.9,5.6-2.5,3.5-5.3
	c-15.1-34.2-31.3-67.8-46.9-101.8c-32.5-69.6-64.6-139.4-97.2-209C100.4,339.5,100,339.5,99.3,339.7z M154.7,523.1
	c5.1-0.5,6.1,5.8,8.6,8.9c5.3,9.5,11.4,18.7,15.5,28.7c1.3,3.7-4.1,3.7-6.3,4.6c-11.3,2.7-23.1,7-34.9,5.2c-5.6-1-7-7.6-9.7-11.7
	c-2.1-3.3-3.3-7.8-6.6-10c-2.9-1-5.6,2.6-3.8,5.2c2.2,7.4,7.1,14.2,7.7,21.9c-1.5,2.7-5.7,1.9-8.4,2.4c-4.3-0.1-5.1-5.9-6.7-8.9
	c-2.8-7.1-6.9-14.2-5.8-22.1c0.3-4.2,5.4-5.5,8.5-7.3c5.9-2.6,12.7-3.7,19-2.6c3.5,1.9,4.2,6.8,6.6,9.8c2.7,3.7,3.9,9.1,8.1,11.5
	c2.9,0.2,7.2-0.3,8.5-3.2c-2.3-9.1-8.6-16.8-10.8-25.9c1-3.8,5.8-5.5,9.3-6.2C153.8,523.1,154.2,523.1,154.7,523.1z M188.5,577.2
	c3.4,2,2.6,6.2,2.5,9.6c-16.7,2.8-33.6,5.4-50.2,9.1c-5.1,1.6-10.6,5.6-16.2,3.6c-4.2-3.2-3.8-11,1.7-12.7c10.6-3.6,22-5.1,33-7.6
	c8.8-1.6,17.6-3.8,26.6-4.4C186.8,575.6,187.6,576.4,188.5,577.2z"/>
<path id="path3314" inkscape:connector-curvature="0" d="M489.6,265.3c-3.6,2-4.5,7-6.9,10.2C424.8,378.5,367.8,482,310.3,585.3
	c-11.1,20.3-22.8,40.4-33.7,60.8c-1.5,1.9-0.1,4.1,2.2,3.8c17.2,1.4,34.6,0.6,51.9,0.9c114.7,0.2,229.4,0.5,344-0.3
	c8.9-0.3,18,0.3,26.8-0.6c-0.6-4.5-4-8.6-5.9-12.9c-32.9-60.4-66.4-120.5-99.1-181.1c-4.2-6.9-6.5-14.6-10.1-21.8
	c-12-20.6-25.2-40.6-36.2-61.8c-18.6-33.5-36.7-67.2-55.5-100.5C493,270,492.3,265.9,489.6,265.3L489.6,265.3z M417.8,486.8
	c15,0.3,30.1,0.1,44.9,1.3c5.4,1.8,10.6,7,9.7,13.2c0,9.4,0.7,19-0.6,28.4c-2,4.2-5.9,8.1-10.9,7.6c-13.1,1.2-26.4,0.7-39.4,2.6
	c-2.9,3.1-2.6,8.3-1.5,12.2c1.8,3.5,6.7,1.5,9.8,2.2c14.4,0.4,28.8,0.5,43.1,0.7c0,6,0,11.9,0,17.9c-23.9,0-47.8,0-71.7,0
	c-1-14.4-1-29,0.6-43.3c2.2-5.4,7.4-9.8,13.6-9.4c11.8-0.7,23.6-0.3,35.3-1.5c4.3-1.3,4.3-7.5,2.5-10.8c-5.3-2.5-11.6-1.3-17.4-1.8
	c-11.5-0.2-23.1-0.1-34.6-0.2c0.2-6-1.6-12.3,0.1-18.1c3.2-2.2,7.8-0.5,11.4-1.1C414.5,486.8,416.2,486.8,417.8,486.8L417.8,486.8z
	 M537.1,487.7c10.8,0,21.7,0,32.5,0c5.1,2.4,10,6.9,9.6,13c0.6,19.3,1.4,38.6,0.4,57.8c-0.1,6.6-5.4,11.3-10.3,15
	c-21.6-0.4-43.2,0.5-64.7-1.3c-4.6-0.6-8.1-4.9-10-8.8c-1.1-13.7-0.9-27.6-0.2-41.4c0.6-1.8,3.9-0.6,5.4-1.1
	c3.8,0.1,8.2-0.5,11.6,0.7c1.5,9.9,0.1,20.1,1.9,29.9c2.5,3.9,8.2,2.1,12,2.9c11.2,0.1,22.7,0.8,33.8-1.1c2.5-1.7,1.1-5.7,1.7-8.3
	c0.3-11.8,0.9-23.8-0.3-35.5c0.2-5.1-5.4-3-8.6-3.4c-19.2,0-38.5,0-57.7,0c-1.7-7.2,3-15.7,10.1-17.8
	C515.2,487.3,526.2,487.9,537.1,487.7L537.1,487.7z"/>
<path id="path3316" inkscape:connector-curvature="0" d="M455.8,259.2c-39.9,1.8-79.7,5.4-119.6,8c-76,5.6-152.1,10.6-228.1,16.5
	c-2.2-0.1-6.1,0.7-4.8,3.8c7.1,18,16.1,35.2,23.9,52.9c40.2,86.1,79.7,172.5,119.4,258.9c4.3,8.8,7.8,18.1,12.8,26.5
	c2.4,2.7,4.3-2,5.5-3.7c49-86.5,96.8-173.7,145.2-260.5c17.7-32.3,36.2-64.3,53-97.1c0.9-1.7,2.8-6-0.8-5.4
	C460.1,259.2,457.9,259.1,455.8,259.2L455.8,259.2z M244.3,330.3c9.6,0.2,17.7,6.4,25.8,10.7c6.4,3.5,10.2,11.9,8,18.9
	c-5.4,11.9-12.5,23.3-18.1,35.1c2.9,3.2,7.1,5.9,11.5,6.8c3.9-1.3,4.8-6.3,7.1-9.3c6.5-10.8,11.5-22.6,19-32.8
	c2.7-2.6,6.5,0.6,9.2,1.6c2.6,1.8,6.8,3.4,7.2,6.8c-7.1,15.1-16,29.5-23.7,44.3c-3.1,5-5.3,10.9-9.3,15.1c-4.1,1.5-7.7-2.4-11.5-3.6
	c-9.5-5.1-19.9-9.3-27.5-17c-4.8-6-3.4-14.5,0.2-20.7c4.7-9.8,10.3-19,15.4-28.4c-2.7-2.6-7.2-6.8-11.2-4.4
	c-8.7,13.1-15.1,27.7-23.7,40.8c-4.9,2.3-10.1-1.5-14.3-3.8c-1.7-0.9-3.7-2.7-2.2-4.7c7.1-15.3,15.7-30,24.2-44.6
	C233.4,335.9,237.6,330.2,244.3,330.3z"/>
<path id="path3320" inkscape:connector-curvature="0" d="M515.2,258.9c0.6,4.7,4,9,5.9,13.5c11.3,21.3,23.6,42.1,34.9,63.5
	c50.4,91.4,101,182.8,151.4,274.2c3.3,5.4,6.1,11.3,9.9,16.3c2.6,0.7,3.1-3.6,4.5-5.1c17.7-35.6,33.9-71.9,51-107.8
	c33.2-71.1,66.7-142.1,99.9-213.2c1.7-4.6,4.8-9,5.7-13.8c-1.8-3.1-6.5-2.3-9.5-3c-51.5-4.2-103.1-7.4-154.6-11.2
	c-65-4.5-130-9.6-195.1-13.7C517.9,258.7,516.4,258.2,515.2,258.9L515.2,258.9z M722.1,323.1c5.1,0.6,6.2,7.1,6.9,11.2
	c0.9,6.4-2.2,12.9-7.9,16c-17.1,10.5-35,19.7-52.7,29.2c-3,0.9-6,4.4-9.2,3.2c-3.8-3.5-6-8.8-8.2-13.4c-1-3.6,4.2-4.4,6.2-6
	c16-8.8,32.3-17.1,48-26.4c2.9-2.5,2.8-7.2,6.4-9.2C714.7,325.6,718.2,323.4,722.1,323.1L722.1,323.1z M741.7,358.7
	c3.8,0.8,5.1,5.5,7.3,8.2c2.3,2.8,3.6,8.4-0.8,10c-6.7,4.3-14.6,6.9-20.6,12.3c-2.6,3.6,1.5,7.6,2.6,11c1.9,4.5,5.3,8.4,7.1,12.9
	c0.7,2.4,2.9,5.2,5.2,5.7c7.9-4.3,15.9-8.6,23.6-13c5,0.5,7.4,5.7,9.1,9.6c0.6,2.8,2.1,7.5-1.6,8.8c-22.9,12.5-45.8,25-68.8,37.3
	c-1.4,1-3,1.1-3.8-0.7c-2.4-4.1-5.2-8.1-7.2-12.4c0.3-4.3,5.7-5.7,8.7-7.9c6.2-4,13.5-6.5,19-11.4c1.5-3.1-2.1-6.1-3-8.9
	c-4.3-8.5-9.1-16.8-13.5-25.1c-0.7-6-1.5-13.4,3.8-17.6c6.8-6.3,15.8-9.7,23.7-14.5C735.6,361.6,738.4,359.2,741.7,358.7z"/>
<path id="path3322" d="M881.4,337.5c-0.1,0-0.3,0-0.4,0c-3.1,3.1-4.1,8-6.5,11.7c-39.1,80.7-76,162.4-113.4,243.8
	c-8.5,19.2-17.8,38-25.2,57.6c-1.7,2.6-0.8,5.2,2.1,6.2c45.5,21.5,91.6,41.7,137.4,62.4c2.1,1.2,6.3,1.8,6.2-1.7
	c1.2-19,0.6-38,0.9-57.1c0.4-100.3,1-200.5,0.6-300.8c-0.4-7.2,0.3-14.5-0.9-21.6C882.1,337.8,881.8,337.6,881.4,337.5z
	 M824.2,516.6c6.5,1.2,10.8,7,15.5,11.1c3.7,4.1,8.6,7.6,11.2,12.5c-1.2,6.7-5.2,12.7-7.3,19.2c-4.9,10.9-8.5,22.4-14.5,32.8
	c-2.6,4-8.3,4-11.5,0.6c-6.2-5.7-12.6-12-15.7-20c-3.1-9.9,1.6-19.5,5.2-28.5c3.9-8.3,6-18,11.9-25
	C820.5,517.8,822.2,516.5,824.2,516.6z M825,539.2c-0.1,0-0.2,0-0.4,0c-2.4,1.9-2.3,5.9-3.9,8.6c-1.8,5.7-5.2,11.3-5.8,17.2
	c1.1,2.8,3.1,6,6.1,6.9c2.8-1.7,3.3-5.8,5-8.6c2.3-4.7,3.4-9.9,6.2-14.4C833.1,544.7,828.8,540.5,825,539.2z M859.9,548.2
	c4.7,0.3,5.7,5.6,5.7,9.4c0.4,8.2,0.1,16.6-3.7,23.9c-4.1,9.4-7.5,19.2-12.4,28.1c-3.8,2-7.2-2.3-9.2-5c-2.1-2.4-3.2-5.6-1.4-8.5
	c6-15.4,12.8-30.8,19.1-46.1C858.5,549.3,859,548.5,859.9,548.2z M792.2,589c4,1.9,7.7,6.1,6.8,10.9c-0.3,3.4-0.6,9.6-5.4,9.2
	c-6.4-0.4-7.9-8.4-6-13.4C788.5,593.4,789.4,589.7,792.2,589z"/>
<path id="path3327" d="M586.4,673.3c-34.9,0-69.8,0-104.7,0c-63.9,0.2-127.7-0.1-191.6,1.4c-2.5,0.5-6.6-0.6-7.9,1.8
	c20.1,26.9,41.5,53.1,62,79.7c32.6,42,65.4,83.8,98.1,125.8c15.9,19.9,31.2,40.2,47.9,59.4c3.5,2.3,5.3-3.1,7.3-4.9
	c38.5-48.5,75.7-98.1,113.7-147.1c28.6-37.3,57.5-74.4,85.1-112.5c1.6-3.1-3.5-3.2-5.3-3.3C656.2,673.4,621.3,673.3,586.4,673.3z
	 M504.6,744.9c4.6,0,9.2,0.2,13.6,1.2c4.4,2.4,8.2,6.9,7.8,12.2c-0.1,9.1,0.6,18.3-0.9,27.3c-2.2,2.5-0.6,5.5,0.6,8
	c0.9,9.2,0.3,18.5-0.1,27.7c-1,4.2-5.2,7.1-9,8.5c-17.2,0-34.4,0.5-51.6-0.3c-4.4-1.4-8.6-5.1-9.6-9.5c0.3-9.1-0.6-18.5,0.5-27.5
	c1.1-1.7,3.7-3.2,1.3-5.3c-1.2-1.9-3.1-5.4-1.5-6.9c16.1-0.6,32.3,0,48.3-1.7c4.7-0.7,3.3-6.7,3.6-10c1.6-5-2.9-5.1-6.6-4.9
	c-15.3-0.9-30.7-0.1-45.9-1.3c-0.6-5.7,0.9-11.7,5.8-15.2c5.2-3.4,11.9-1.8,17.8-2.3c4.1,0,8.2,0,12.3,0
	C495.4,745.2,500,744.9,504.6,744.9z M482.2,798.6c-3.5,0-8,0.3-8.4,4.4c-0.9,3.6,0.8,8.9,5.3,8.2c9,0.1,18.1,0.8,27-0.3
	c2.4-2.3,1.1-6.4,1.1-9.4c-0.3-3.9-5.4-2.5-8-2.9c-5.2-0.1-10.4-0.1-15.6,0C483.1,798.6,482.7,798.6,482.2,798.6z"/>
</svg>
